Data Experts: Spark from R
…
There are a lot of features but we focuse only on data manipulation and machine learning (ML) part. So, lets write a few preprocess steps for our data and then work on modeling part.

Data preparation

Sparklyr has some great features as data bucketing like base cut function, quantile bucketing, NA imputation and other interesting functions. But one can ask: “How about grouping data then finding a mean?”. As it was mentioned, dplyr can fully meet your needs.

For example:

library(rmarkdown)
library(dplyr)

# group and collect result
df %>% group_by(var_196) %>% summarise(mean_197 = mean(var_196,na.rm = T)) %>% collect()

# A tibble: 125,560 x 2
   var_196 mean_197
     <dbl>    <dbl>
 1    8.13     8.13
 2   -6.52    -6.52
 3   14.1     14.1 
 4    5.74     5.74
 5   -3.50    -3.50
 6   -4.10    -4.10
 7    9.08     9.08
 8    3.76     3.76
 9    9.43     9.43
10    5.39     5.39
# … with 125,550 more rows
…
